%YAML 1.1
%TAG !u! tag:unity3d.com,2011:
--- !u!114 &11400000
MonoBehaviour:
  m_ObjectHideFlags: 0
  m_CorrespondingSourceObject: {fileID: 0}
  m_PrefabInstance: {fileID: 0}
  m_PrefabAsset: {fileID: 0}
  m_GameObject: {fileID: 0}
  m_Enabled: 1
  m_EditorHideFlags: 0
  m_Script: {fileID: 11500000, guid: 88f2be8b101b6e54fb07e617353a927c, type: 3}
  m_Name: Level3
  m_EditorClassIdentifier: 
  number: 3
  presetBoxs:
  - {fileID: 6862064207675289739, guid: 855a5a4b2ff0e3b4b86ff21a24aa14d1, type: 3}
  - {fileID: 6862064207675289739, guid: 60967ae2e3868c641971086db60c0942, type: 3}
  - {fileID: 6862064207675289739, guid: 7656215c035049d47883db73cc0c0d6b, type: 3}
