%YAML 1.1
%TAG !u! tag:unity3d.com,2011:
--- !u!114 &11400000
MonoBehaviour:
  m_ObjectHideFlags: 0
  m_CorrespondingSourceObject: {fileID: 0}
  m_PrefabInstance: {fileID: 0}
  m_PrefabAsset: {fileID: 0}
  m_GameObject: {fileID: 0}
  m_Enabled: 1
  m_EditorHideFlags: 0
  m_Script: {fileID: 11500000, guid: 88f2be8b101b6e54fb07e617353a927c, type: 3}
  m_Name: Level2
  m_EditorClassIdentifier: 
  number: 2
  presetBoxs:
  - {fileID: 8638206299767928924, guid: 09a1c0021e7cf314b93a9d0aece32061, type: 3}
  - {fileID: 5648740427519469812, guid: b59e24d207023d24d863b515615b91af, type: 3}
  - {fileID: 1115751711432190014, guid: a0b715c926b32834eba049463f0ccaee, type: 3}
